Ticket ID,Subject,Status,Priority,Source,Type,Agent,Group,Created time,Due by Time,Resolved time,Closed time,Last update time,Initial response time,Time tracked,First response time (in hrs),Resolution time (in hrs),Agent interactions,Customer interactions,Resolution status,First response status,Tags,Survey results,Internal agent,Product,Internal group,Management Escalated,Acknowledger,Product,Severity,Operator,Issue Category,Working Time of Day,Neutralize,Resolution,Full name,Title,Email,Work phone,Mobile phone,Twitter ID,Time zone,Language,Unique External ID,Facebook ID,Contact ID,Company Name,Company Domains,Health score,Account tier,AMC Period - Start,AMC Period - End,Renewal date,SLA Status,SLA Customer Contact,Industry
8156,High amount of retries in Prime,Waiting on Customer,High,Email,Ongoing Project,Yuvin Nelaka Perera,Latam_L1,2018-11-07 20:28:05,2018-11-09 22:43:22,,,2018-12-11 08:57:29,2018-11-07 20:31:13,00:00,00:03:08,00:00:00,12,5,"",Within SLA,"",,No Agent,No Product,No Group,No,Yuvin Nelaka Perera,Prime-SMSC,Minor,Colombia-Tigo,Other Issue,SL Night (6pm to 8am),N/A,N/A,Nicolas Manzur,Mr,nicolas.manzur@tigoune.com,5714435180,"","",Bogota,en,,,nicolas.manzur@tigoune.com,TIGO COLOMBIA | LATAM,tigo.com.co,,,,,,,,
8157,GUI queries are very delayed,Waiting on Customer,High,Email,Ongoing Project,Harikaran,Latam_L1,2018-11-08 00:20:33,2018-12-06 22:31:34,,,2018-12-18 02:37:12,2018-11-08 00:23:07,00:00,00:00:00,00:00:00,2,2,"",Within SLA,"",,No Agent,No Product,No Group,No,Harikaran,Other-CAM,Major,Colombia-Tigo,Implementation issue,Latam Day (8am to 6pm),,,Alvaro Villamizar,Mr,alvaro.villamizar@huawei.com,"","","",Chennai,en,,,alvaro.villamizar@huawei.com,TIGO COLOMBIA | LATAM,tigo.com.co,,,,,,,,
8162,No SMS delivery with DCS 246 and UDHI 1,Activity Pending,Urgent,Email,Ongoing Project,Unified VAS,Latam_L3,2018-11-08 08:37:12,2018-11-09 08:37:13,,,2018-12-17 15:46:08,2018-11-08 08:45:53,00:00,00:00:00,00:00:00,6,4,"",Within SLA,"",,No Agent,No Product,No Group,No,Nishantha Dasanayake,Prime-SMSC,Minor,Colombia-Tigo,Other Issue,Latam Day (8am to 6pm),,,Alvaro Villamizar,Mr,alvaro.villamizar@huawei.com,"","","",Chennai,en,,,alvaro.villamizar@huawei.com,TIGO COLOMBIA | LATAM,tigo.com.co,,,,,,,,
8169,Degradation kpi sri,Waiting on Customer,High,Email,Ongoing Project,Tharindu Udan,Latam_L1,2018-11-08 22:10:19,2018-11-10 22:10:19,,,2018-12-04 06:43:22,2018-11-08 22:28:00,00:00,00:00:00,00:00:00,1,1,"",SLA Violated,"",,No Agent,No Product,No Group,No,Nishantha Dasanayake,Prime-SMSC,Critical,Colombia-Tigo,Implementation issue,Latam Day (8am to 6pm),N/A,N/A,Alvaro Villamizar,Mr,alvaro.villamizar@huawei.com,"","","",Chennai,en,,,alvaro.villamizar@huawei.com,TIGO COLOMBIA | LATAM,tigo.com.co,,,,,,,,
8175,Fail refund SMS for CBS,Activity Pending,High,Email,Ongoing Project,Unified VAS,Latam_L3,2018-11-10 07:37:15,2018-11-14 07:37:15,,,2018-12-17 07:35:41,2018-11-10 07:40:32,00:00,00:00:00,00:00:00,7,10,"",Within SLA,"",,No Agent,No Product,No Group,No,Nishantha Dasanayake,Other Product,Major,Colombia-Tigo,Customer issue,SL Day (8am to 6pm),,,Nicolas Manzur,Mr,nicolas.manzur@tigoune.com,5714435180,"","",Bogota,en,,,nicolas.manzur@tigoune.com,TIGO COLOMBIA | LATAM,tigo.com.co,,,,,,,,
8200,Missing data for RSLA15 and F2.3 Reports,Waiting on Customer,Low,Email,Ongoing Project,shamika,Latam_L1,2018-11-14 22:36:42,2018-12-06 11:56:09,,,2018-12-11 15:38:41,2018-11-14 22:45:40,00:00,00:08:58,00:00:00,2,4,"",Within SLA,"",,No Agent,No Product,No Group,No,Shamika,Prime-SMSC,Minor,Colombia-Tigo,Other Issue,SL Night (6pm to 8am),N/A,N/A,David Tovar,Mr,david.tovar@huawei.com,"","","",Chennai,en,,,david.tovar@huawei.com,TIGO COLOMBIA | LATAM,tigo.com.co,,,,,,,,
