8, 2019/08/01 03:29:34, 8711, vmsrbt, 75198484, , 1493613667631353865, 2019/08/01 03:29:34, SMPP3, , 0, , , 0, 2019/08/01 03:29:34, 64, 0, 5, 0, 1, 1, , , , , , , , , , 0, 0, 1, 1, 0, 0, 1, , 0, 192.168.167.65, 
5, 2019/08/01 03:29:34, 8711, vmsrbt, 75198484, VMSMCA, 1493613667631353865, 2019/08/01 03:29:34, SMPP3, , 0, , 65a7cd1b, 0, 2019/08/01 03:29:34, 64, 0, 5, 0, 1, 1, , , , , , , , , , 0, 0, 1, 1, 0, 0, 1, 1, 0, 192.168.203.177, 
8, 2019/08/01 03:29:34, 8711, vmsrbt, 76814069, , 75280589964628455431, 2019/08/01 03:29:34, SMPP1, , 0, , , 184, 2019/08/01 14:29:34, 0, 8, 5, 0, 1, 1, , , , , , , , , , 184, 0, 1, 1, 2, 0, 1, , 0, 192.168.167.65, 
8, 2019/08/01 03:29:34, 8711, vmsrbt, 75693447, , 75280589965163646984, 2019/08/01 03:29:34, SMPP2, , 0, , , 184, 2019/08/01 14:29:34, 0, 8, 5, 0, 1, 1, , , , , , , , , , 184, 0, 1, 1, 2, 0, 1, , 0, 192.168.167.65, 
5, 2019/08/01 03:29:35, 8711, vmsrbt, 76814069, VMSMCA, 75280589964628455431, 2019/08/01 03:29:34, SMPP1, , 0, , 65a7cd24, 134, 2019/08/01 14:29:35, 0, 8, 5, 0, 1, 1, , , , , , , , , , 134, 189, 2, 1, 2, 0, 1, 1, 0, 192.168.203.177, 
5, 2019/08/01 03:29:35, 8711, vmsrbt, 75693447, VMSMCA, 75280589965163646984, 2019/08/01 03:29:34, SMPP2, , 0, , 65a7cd28, 134, 2019/08/01 14:29:35, 0, 8, 5, 0, 1, 1, , , , , , , , , , 134, 106, 2, 1, 2, 0, 1, 1, 0, 192.168.203.177, 
5, 2019/08/01 03:29:35, 8711, vmsrbt, 76814069, VMSMCA, 75280589964628455431, 2019/08/01 03:29:34, SMPP1, , 0, , 65a7cd2d, 50, 2019/08/01 14:29:35, 0, 8, 5, 0, 1, 1, , , , , , , , , , 50, 189, 2, 2, 2, 0, 1, 1, 0, 192.168.203.177, 
5, 2019/08/01 03:29:35, 8711, vmsrbt, 75693447, VMSMCA, 75280589965163646984, 2019/08/01 03:29:34, SMPP2, , 0, , 65a7cd31, 50, 2019/08/01 14:29:35, 0, 8, 5, 0, 1, 1, , , , , , , , , , 50, 106, 2, 2, 2, 0, 1, 1, 0, 192.168.203.177, 
8, 2019/08/01 03:29:36, 8711, vmsrbt, 75672953, , 1493613675073085448, 2019/08/01 03:29:36, SMPP2, , 0, , , 0, 2019/08/01 03:29:36, 64, 0, 5, 0, 1, 1, , , , , , , , , , 0, 0, 1, 1, 0, 0, 1, , 0, 192.168.167.65, 
5, 2019/08/01 03:29:36, 8711, vmsrbt, 75672953, VMSMCA, 1493613675073085448, 2019/08/01 03:29:36, SMPP2, , 0, , 65a7cd3a, 0, 2019/08/01 03:29:36, 64, 0, 5, 0, 1, 1, , , , , , , , , , 0, 0, 1, 1, 0, 0, 1, 1, 0, 192.168.203.177,